Dependências Firebreath   | Download | Install
----------------------------------------------
Visual Studio Express     |    OK    |   OK
----------------------------------------------
WDL 7.1                   |   OK     |   OK
----------------------------------------------
Wix                       |   OK     |   OK
----------------------------------------------
CMake                     |   OK     |   OK
----------------------------------------------
Python 2.7                |   OK     |   OK
----------------------------------------------

Dependências Arariwe      | Download | Install
----------------------------------------------
OpenSSL                   |   OK     |   OK
----------------------------------------------
FLTK                      |   OK     |   
----------------------------------------------
Nharu                     |   OK     |   
----------------------------------------------


Facilidades               | Download | Install
----------------------------------------------
Code::Blocks              |   OK     |   OK
----------------------------------------------
Notepad++                 |   OK     |   OK
----------------------------------------------
Git                       |   OK     |   OK
----------------------------------------------
Putty                     |   OK     |   OK
----------------------------------------------